[
    {
        "id": "4673da7d268c6549",
        "type": "tab",
        "label": "Flow 1",
        "disabled": false,
        "info": "",
        "env": []
    },
    {
        "id": "3bbb66afa98956de",
        "type": "mongodb",
        "hostname": "mongodb-2502-ubos-5pj4m-mongodb-2502.ubos-5pj4m",
        "topology": "direct",
        "connectOptions": "authSource=admin",
        "port": "27017",
        "db": "mongodb-2502",
        "name": "MyFirstDB"
    },
    {
        "id": "fb0bb17914736749",
        "type": "http in",
        "z": "4673da7d268c6549",
        "name": "",
        "url": "/hello",
        "method": "get",
        "upload": false,
        "swaggerDoc": "",
        "x": 140,
        "y": 160,
        "wires": [
            [
                "43694b43b77bb3df"
            ]
        ]
    },
    {
        "id": "43694b43b77bb3df",
        "type": "function",
        "z": "4673da7d268c6549",
        "name": "helloFunction",
        "func": "msg.payload = \"Hello world!!!\"; \nreturn msg;",
        "outputs": 1,
        "noerr": 0,
        "initialize": "",
        "finalize": "",
        "libs": [],
        "x": 290,
        "y": 160,
        "wires": [
            [
                "a8b93ab6e1a2c9a4"
            ]
        ]
    },
    {
        "id": "a8b93ab6e1a2c9a4",
        "type": "http response",
        "z": "4673da7d268c6549",
        "name": "",
        "statusCode": "",
        "headers": {},
        "x": 430,
        "y": 160,
        "wires": []
    },
    {
        "id": "98eb6cad4649bc99",
        "type": "mongodb in",
        "z": "4673da7d268c6549",
        "mongodb": "3bbb66afa98956de",
        "name": "",
        "collection": "",
        "operation": "find",
        "x": 150,
        "y": 220,
        "wires": [
            []
        ]
    }
]